<svg xmlns="http://www.w3.org/2000/svg" width="23.831" height="24.097" viewBox="0 0 23.831 24.097">
  <g id="Group_676" data-name="Group 676" transform="translate(-12.245 -871.5)">
    <path id="Rectangle_2-2" data-name="Rectangle 2-2" d="M942.5,1374.778l-7.046,10.426-3.952-2.678,7.02-10.426Z" transform="translate(-907.423 -499.6)" fill="none" stroke="#5dff00" stroke-linecap="round" stroke-linejoin="round" stroke-width="2"/>
    <path id="Path_4-2" data-name="Path 4-2" d="M923.522,1419.9l3.38,2.288-4.6,3.146Z" transform="translate(-901.409 -533.128)" fill="#5dff00" stroke="#5dff00" stroke-linecap="round" stroke-linejoin="round" stroke-width="2"/>
    <path id="Path_5" data-name="Path 5" d="M6.666,19.647H2.153A2.25,2.25,0,0,1,0,17.324v-15A2.25,2.25,0,0,1,2.153,0H14.984a2.25,2.25,0,0,1,2.153,2.323v9.745" transform="translate(13.245 894.597) rotate(-90)" fill="none" stroke="#5dff00" stroke-linecap="round" stroke-linejoin="round" stroke-width="2"/>
  </g>
</svg>
